<?xml version="1.0" encoding="utf-8"?>
<!-- Generator: Adobe Illustrator 21.0.0, SVG Export Plug-In . SVG Version: 6.00 Build 0)  -->
<svg version="1.1" id="Layer_1" xmlns="http://www.w3.org/2000/svg" xmlns:xlink="http://www.w3.org/1999/xlink" x="0px" y="0px"
	 viewBox="0 0 636.1 140.4" style="enable-background:new 0 0 636.1 140.4;" xml:space="preserve">
<style type="text/css">
	.st0{fill:url(#SVGID_1_);}
	.st1{fill:url(#SVGID_2_);}
	.st2{fill:url(#SVGID_3_);}
	.st3{fill:url(#SVGID_4_);}
	.st4{fill:url(#SVGID_5_);}
</style>
<g>
	<linearGradient id="SVGID_1_" gradientUnits="userSpaceOnUse" x1="167.5344" y1="58.9364" x2="600.8201" y2="58.9364">
		<stop  offset="1.502404e-03" style="stop-color:#DA8CFF"/>
		<stop  offset="1" style="stop-color:#9A55FF"/>
	</linearGradient>
	<path class="st0" d="M183,100.8c-6.3-4.6-10.7-11.1-13.2-19.6l16.6-6.5c1.3,5,3.5,8.9,6.7,11.9c3.1,3,7,4.4,11.7,4.4
		c3.9,0,7.3-1,10-2.9c2.8-2,4.2-4.7,4.2-8.2s-1.3-6.3-4-8.5c-2.7-2.2-7.4-4.6-14.2-7.1l-5.7-2.1c-6-2.1-11.1-5.3-15.4-9.6
		c-4.3-4.3-6.4-9.7-6.4-16.2c0-4.9,1.3-9.3,3.8-13.3c2.5-4,6.1-7.2,10.7-9.5c4.6-2.3,9.8-3.5,15.7-3.5c8.4,0,15.1,2,20,5.9
		c4.9,4,8.2,8.6,10,13.9L218,36.5c-1-2.9-2.6-5.3-5-7.2c-2.4-2-5.5-2.9-9.2-2.9c-3.8,0-7,0.9-9.5,2.7c-2.5,1.8-3.7,4.1-3.7,7
		c0,2.8,1.2,5.2,3.5,7.1c2.3,2,6.2,3.8,11.6,5.7l5.9,2c8.1,2.8,14.3,6.5,18.6,11c4.3,4.6,6.5,10.5,6.5,17.9c0,6.1-1.6,11.2-4.7,15.5
		c-3.1,4.2-7.2,7.4-12.1,9.5c-4.9,2.1-10,3.1-15.2,3.1C196.5,107.7,189.3,105.4,183,100.8z"/>
	<linearGradient id="SVGID_2_" gradientUnits="userSpaceOnUse" x1="131.2473" y1="62.2628" x2="564.533" y2="62.2628">
		<stop  offset="1.502404e-03" style="stop-color:#DA8CFF"/>
		<stop  offset="1" style="stop-color:#9A55FF"/>
	</linearGradient>
	<path class="st1" d="M318.9,103.6c-6.5,2.8-13.3,4.2-20.2,4.2c-9.1,0-17.4-2.2-24.9-6.5c-7.4-4.3-13.3-10.2-17.5-17.7
		c-4.3-7.5-6.4-15.7-6.4-24.7c0-9,2.1-17.2,6.4-24.7c4.3-7.5,10.1-13.4,17.5-17.7c7.4-4.3,15.7-6.5,24.9-6.5
		c9.1,0,17.4,2.2,24.9,6.5c7.4,4.3,13.3,10.2,17.5,17.7c4.3,7.5,6.4,15.7,6.4,24.7c0,7.1-1.3,13.8-4,20c-2.7,6.2-6.5,11.5-11.3,16
		l7.2,10.7l-13,8.7L318.9,103.6z M309.3,89.1l-10.2-15.3l13-8.9l10.2,15.4c2.4-2.7,4.3-5.9,5.6-9.5c1.3-3.7,2-7.6,2-11.9
		c0-6.3-1.4-11.8-4.1-16.7c-2.7-4.9-6.5-8.7-11.3-11.3c-4.8-2.7-10-4-15.8-4c-5.7,0-11,1.4-15.7,4c-4.7,2.7-8.5,6.5-11.2,11.3
		c-2.7,4.9-4.1,10.4-4.1,16.7s1.4,11.8,4.1,16.7c2.7,4.9,6.5,8.7,11.2,11.3c4.7,2.7,10,4,15.7,4C302.1,91,305.6,90.4,309.3,89.1z"/>
	<linearGradient id="SVGID_3_" gradientUnits="userSpaceOnUse" x1="131.2473" y1="86.4617" x2="564.533" y2="86.4617">
		<stop  offset="1.502404e-03" style="stop-color:#DA8CFF"/>
		<stop  offset="1" style="stop-color:#9A55FF"/>
	</linearGradient>
	<path class="st2" d="M381.3,102.5l-28-63.4h19.4l17.2,41.4h1l16.6-41.4h19l-41.1,94.7H367L381.3,102.5z"/>
	<linearGradient id="SVGID_4_" gradientUnits="userSpaceOnUse" x1="131.2473" y1="58.9364" x2="564.533" y2="58.9364">
		<stop  offset="1.502404e-03" style="stop-color:#DA8CFF"/>
		<stop  offset="1" style="stop-color:#9A55FF"/>
	</linearGradient>
	<path class="st3" d="M438.3,12.2h31.6c9.7,0,18.2,2,25.4,5.9c7.2,3.9,12.8,9.4,16.7,16.4c3.9,7,5.9,15.2,5.9,24.4
		c0,9.2-2,17.4-5.9,24.4c-3.9,7-9.5,12.5-16.7,16.4c-7.2,3.9-15.7,5.9-25.4,5.9h-31.6V12.2z M469.1,88.9c10.1,0,17.8-2.7,23.1-8
		c5.3-5.3,8-12.7,8-22c0-9.3-2.7-16.6-8-22s-13-8-23.1-8h-13.2v60H469.1z"/>
</g>
<linearGradient id="SVGID_5_" gradientUnits="userSpaceOnUse" x1="13.5865" y1="59.2287" x2="488.1255" y2="59.2287">
	<stop  offset="1.502404e-03" style="stop-color:#DA8CFF"/>
	<stop  offset="1" style="stop-color:#9A55FF"/>
</linearGradient>
<path class="st4" d="M111.7,47.5V32.3c0-5.4-4.4-9.8-9.8-9.8H62.6l-9.8-9.8H23.4c-5.4,0-9.8,4.4-9.8,9.8v58.8c0,5.4,4.4,9.8,9.8,9.8
	h35.3c5.9,8.8,16.7,14.7,28.4,14.7c19.1,0,34.3-15.2,34.3-34.3C121.5,62.2,117.6,53.8,111.7,47.5 M54.3,81.3H23.4v-49h78.5v8.3
	c-4.4-2.5-9.3-3.4-14.7-3.4c-19.1,0-34.3,15.2-34.3,34.3C52.8,74.9,53.3,78.4,54.3,81.3 M87.1,96c-13.7,0-24.5-10.8-24.5-24.5
	S73.4,47,87.1,47s24.5,10.8,24.5,24.5S100.9,96,87.1,96 M92.1,61.7h-9.8v-9.8h9.8V61.7 M92.1,91.1h-9.8V66.6h9.8V91.1z"/>
</svg>
