<?xml version="1.0" encoding="utf-8"?>
<!-- Generator: Adobe Illustrator 21.0.0, SVG Export Plug-In . SVG Version: 6.00 Build 0)  -->
<svg version="1.1" id="Layer_1" xmlns="http://www.w3.org/2000/svg" xmlns:xlink="http://www.w3.org/1999/xlink" x="0px" y="0px"
	 viewBox="0 0 102.5 102.5" style="enable-background:new 0 0 102.5 102.5;" xml:space="preserve">
<style type="text/css">
	.st0{fill:url(#SVGID_1_);}
</style>
<linearGradient id="SVGID_1_" gradientUnits="userSpaceOnUse" x1="1.3248" y1="51.5571" x2="446.3246" y2="51.5571">
	<stop  offset="1.502404e-03" style="stop-color:#DA8CFF"/>
	<stop  offset="1" style="stop-color:#9A55FF"/>
</linearGradient>
<path class="st0" d="M93.3,40.5V26.3c0-5.1-4.1-9.2-9.2-9.2H47.3l-9.2-9.2H10.5c-5.1,0-9.2,4.1-9.2,9.2v55.2c0,5.1,4.1,9.2,9.2,9.2
	h33.1c5.5,8.3,15.6,13.8,26.7,13.8c17.9,0,32.2-14.3,32.2-32.2C102.5,54.3,98.8,46.5,93.3,40.5 M39.5,72.3h-29v-46h73.6v7.8
	c-4.1-2.3-8.7-3.2-13.8-3.2c-17.9,0-32.2,14.3-32.2,32.2C38.1,66.3,38.6,69.5,39.5,72.3 M70.3,86c-12.9,0-23-10.1-23-23
	s10.1-23,23-23s23,10.1,23,23S83.2,86,70.3,86 M74.9,53.9h-9.2v-9.2h9.2V53.9 M74.9,81.4h-9.2v-23h9.2V81.4z"/>
</svg>
